…
                            "forest-land-degradation",
                            "shrubgrass-fires",
                            "forest-land-fires",
                            "wetland-fires",
                            "removals")
    ) %>% 
  group_by(source_name) %>% 
  summarise(
    emission = mean(emissions_quantity, na.rm=TRUE)
  ) %>% 
  arrange(emission %>% desc()) %>% 
  mutate(
    acumulada = cumsum(emission)
    ) 
#> # A tibble: 9,842 × 3
#>    source_name                                               emission acumulada
#>    <chr>                                                        <dbl>     <dbl>
#>  1 Tupi                                                     36338342. 36338342.
#>  2 São Paulo Urban Area in São Paulo Municipality            9272765. 45611107.
#>  3 Buzios                                                    7412823. 53023929.
#>  4 Porto do Pecém power station                              5956000  58979929.
#>  5 Marlim                                                    5402369. 64382298.
#>  6 Petrobras REPLAN Paulinia Refinery                        4991726. 69374025.
#>  7 Jorge Lacerda power station                               4704000  74078025.
#>  8 Rio de Janeiro Urban Area in Rio de Janeiro Municipality  4665274. 78743299.
#>  9 Tres Lagoas Pulp Mill                                     3987092  82730391.
#> 10 Sapinhoa                                                  3609112. 86339503.
#> # ℹ 9,832 more rows
```
…
